…
    ## Warning: package 'tidyr' was built under R version 3.3.2

    library(ggplot2)

    ## Warning: package 'ggplot2' was built under R version 3.3.2

    # install.packages("nycflights13")
    library(nycflights13)

    ## Warning: package 'nycflights13' was built under R version 3.3.2

    #Using Nycflights dataframe we are analyzing wind speed throughout the 2013 year.
    nycflights13::weather

    ## # A tibble: 26,130 × 15
    ##    origin  year month   day  hour  temp  dewp humid wind_dir wind_speed
    ##     <chr> <dbl> <dbl> <int> <int> <dbl> <dbl> <dbl>    <dbl>      <dbl>
    ## 1     EWR  2013     1     1     0 37.04 21.92 53.97      230   10.35702
    ## 2     EWR  2013     1     1     1 37.04 21.92 53.97      230   13.80936
    ## 3     EWR  2013     1     1     2 37.94 21.92 52.09      230   12.65858
    ## 4     EWR  2013     1     1     3 37.94 23.00 54.51      230   13.80936
    ## 5     EWR  2013     1     1     4 37.94 24.08 57.04      240   14.96014
    ## 6     EWR  2013     1     1     6 39.02 26.06 59.37      270   10.35702
    ## 7     EWR  2013     1     1     7 39.02 26.96 61.63      250    8.05546
    ## 8     EWR  2013     1     1     8 39.02 28.04 64.43      240   11.50780
    ## 9     EWR  2013     1     1     9 39.92 28.04 62.21      250   12.65858
    ## 10    EWR  2013     1     1    10 39.02 28.04 64.43      260   12.65858
    ## # ... with 26,120 more rows, and 5 more variables: wind_gust <dbl>,
    ## #   precip <dbl>, pressure <dbl>, visib <dbl>, time_hour <dttm>
…
    library(dplyr)
    library(tidyr)
    library(ggplot2)

    #Filter out the NA values for wind direction and use the columns that will be of use.
    nycflights13::weather

    ## # A tibble: 26,130 × 15
    ##    origin  year month   day  hour  temp  dewp humid wind_dir wind_speed
    ##     <chr> <dbl> <dbl> <int> <int> <dbl> <dbl> <dbl>    <dbl>      <dbl>
    ## 1     EWR  2013     1     1     0 37.04 21.92 53.97      230   10.35702
    ## 2     EWR  2013     1     1     1 37.04 21.92 53.97      230   13.80936
    ## 3     EWR  2013     1     1     2 37.94 21.92 52.09      230   12.65858
    ## 4     EWR  2013     1     1     3 37.94 23.00 54.51      230   13.80936
    ## 5     EWR  2013     1     1     4 37.94 24.08 57.04      240   14.96014
    ## 6     EWR  2013     1     1     6 39.02 26.06 59.37      270   10.35702
    ## 7     EWR  2013     1     1     7 39.02 26.96 61.63      250    8.05546
    ## 8     EWR  2013     1     1     8 39.02 28.04 64.43      240   11.50780
    ## 9     EWR  2013     1     1     9 39.92 28.04 62.21      250   12.65858
    ## 10    EWR  2013     1     1    10 39.02 28.04 64.43      260   12.65858
    ## # ... with 26,120 more rows, and 5 more variables: wind_gust <dbl>,
    ## #   precip <dbl>, pressure <dbl>, visib <dbl>, time_hour <dttm>
…
Now we move on to babynames! Identify the ten most common male and
female names in 2014. Make a plot of their frequency (prop) since 1880.
(This may require two separate piped statements). Make a single table of
the 26th through 29th most common girls names in the year 1896, 1942,
and 2016 Write task that involves some of the functions on the Data
Wrangling Cheat Sheet and execute it. You may either use your own data
or data packages (e.g., the ones listed here).

    #install.packages("babynames")

    babynames::babynames 

    ## # A tibble: 1,825,433 × 5
    ##     year   sex      name     n       prop
    ##    <dbl> <chr>     <chr> <int>      <dbl>
    ## 1   1880     F      Mary  7065 0.07238359
    ## 2   1880     F      Anna  2604 0.02667896
    ## 3   1880     F      Emma  2003 0.02052149
    ## 4   1880     F Elizabeth  1939 0.01986579
    ## 5   1880     F    Minnie  1746 0.01788843
    ## 6   1880     F  Margaret  1578 0.01616720
    ## 7   1880     F       Ida  1472 0.01508119
    ## 8   1880     F     Alice  1414 0.01448696
    ## 9   1880     F    Bertha  1320 0.01352390
    ## 10  1880     F     Sarah  1288 0.01319605
    ## # ... with 1,825,423 more rows
…
